<svg width="826" height="689" viewBox="0 0 826 689" fill="none" xmlns="http://www.w3.org/2000/svg">
<g clip-path="url(#clip0_2_7)">
<path d="M340.783 117.912C339.371 118.3 338.062 118.994 336.947 119.943C335.832 120.892 334.939 122.074 334.33 123.406C333.722 124.738 333.412 126.187 333.424 127.651C333.436 129.115 333.769 130.559 334.4 131.881L319.093 148.898L327.166 160.722L348.444 136.387C350.594 135.181 352.227 133.228 353.034 130.898C353.84 128.568 353.764 126.024 352.82 123.747C351.875 121.469 350.128 119.618 347.91 118.542C345.692 117.467 343.156 117.243 340.783 117.912V117.912Z" fill="#FBD2C1"/>
<path d="M197.487 159.698C198.867 157.452 200.676 155.501 202.812 153.956C204.948 152.411 207.367 151.303 209.932 150.695C212.497 150.087 215.157 149.992 217.759 150.414C220.361 150.836 222.854 151.768 225.095 153.156L275.434 184.333L329.735 138.176L343.245 150.754L283.258 228.584L205.293 187.94C207.112 188.888 195.288 163.277 197.487 159.698Z" fill="#31B6BF"/>
<path d="M297.21 263.364C297.205 288.226 302.098 312.845 311.61 335.815C321.122 358.785 335.066 379.657 352.646 397.237C370.226 414.816 391.097 428.76 414.067 438.272C437.037 447.784 461.656 452.677 486.518 452.672C591.069 452.672 675.826 367.915 675.826 263.364C675.844 243.028 672.584 222.821 666.171 203.522C653.581 165.831 629.461 133.051 597.222 109.819C564.983 86.5858 526.256 74.0754 486.518 74.0565C452.247 74.0446 418.615 83.3396 389.213 100.949C359.812 118.559 335.744 143.822 319.58 174.043C315.572 181.499 312.076 189.218 309.115 197.149C308.705 198.253 308.306 199.357 307.917 200.472V200.483C306.181 205.383 304.653 210.376 303.331 215.459C299.254 231.101 297.197 247.2 297.21 263.364Z" fill="#18689F"/>
<path d="M507.23 135.641C515.738 131.04 525.183 128.443 534.847 128.048C544.51 127.652 554.137 129.469 562.992 133.359C570.788 136.752 578.997 142.839 581.598 153.83C571.079 147.622 557.463 157.431 554.756 173.166L555.388 173.34C556.817 184.239 553.626 196.104 547.447 202.862C546.636 195.843 542.02 191.065 537.48 188.081C532.941 185.097 527.918 182.929 524.453 177.799C520.345 171.718 519.302 162.83 517.67 154.722C516.038 146.614 512.942 137.9 507.23 135.641Z" fill="#F1FEFF"/>
<path d="M566.112 228.384C569.025 232.759 572.916 235.505 576.408 238.923C579.889 242.351 583.202 246.979 583.896 252.921C584.338 256.728 583.654 260.598 583.749 264.448C583.843 268.297 585.127 272.63 587.745 273.587C591.879 275.08 595.034 267.403 599.283 266.867C602.659 266.446 605.698 271.757 604.72 276.364C603.742 280.97 599.146 283.01 596.506 280.002C594.119 284.009 595.802 291.277 599.388 292.507C599.766 295.031 600.145 297.545 600.513 300.069C609.579 293.727 618.739 287.28 626.448 277.994C635.022 267.753 640.34 255.184 641.719 241.899C642.718 231.224 641.235 219.014 646.136 210.8C650.059 204.227 656.79 202.775 662.848 203.186C663.952 203.259 665.067 203.385 666.171 203.522C662.599 192.792 658.061 182.408 652.615 172.497C651.382 171.968 650.237 171.255 649.218 170.383C643.581 165.597 641.078 155.911 636.503 149.212C636.208 148.78 635.903 148.36 635.588 147.95C630.908 141.839 624.639 138.695 618.581 135.771C605.172 129.261 591.374 122.666 577.218 123.571L581.246 123.96C585.947 137.127 590.651 150.295 595.36 163.462C596.075 165.482 596.797 167.504 597.526 169.531C600.198 177.019 602.953 184.991 602.543 193.373C602.301 198.337 600.576 203.638 597.295 205.341C594.234 206.919 590.89 204.984 587.935 203.07C586.683 202.27 585.442 201.471 584.191 200.661C579.7 197.769 574.725 194.803 569.982 196.738C565.638 198.505 562.431 204.405 561.821 210.768C561.261 216.953 562.771 223.149 566.112 228.384Z" fill="#F1FEFF"/>
<path d="M539.403 318.282C552.518 310.206 565.634 302.131 578.75 294.055L578.528 293.482C586.682 296.588 590.068 311.083 588.72 322.938C587.373 334.792 582.803 345.389 580.494 356.94C577.382 372.746 578.556 389.098 583.897 404.297C566.651 384.946 551.387 363.914 538.337 341.517C536.514 338.694 535.125 335.614 534.216 332.379C533.382 328.937 533.511 324.799 535.179 322.039C536.253 320.455 537.704 319.164 539.403 318.282Z" fill="#F1FEFF"/>
<path d="M591.167 171.363C592.559 174.494 593.095 178.67 591.831 181.91C590.54 185.219 587.812 186.714 585.3 187.959L578.052 191.551C575.641 192.746 573.043 193.953 570.585 192.97C567.62 191.784 565.565 187.137 566.097 182.822C566.663 178.231 569.557 175.073 572.233 172.384C575.979 168.62 579.724 164.857 583.47 161.093L585.581 163.678C587.864 165.905 589.753 168.504 591.167 171.363V171.363Z" fill="#DEF9FC"/>
<path d="M336.06 220.444C332.8 221.212 329.54 221.98 326.279 222.747C326.847 233.759 332.306 243.95 339.626 247.641C342.676 249.177 346.073 249.745 348.597 252.616C350.879 255.224 352.036 259.284 353.098 263.164C354.96 269.938 356.821 276.711 358.683 283.483C360.681 290.782 363.247 298.891 368.443 301.52C372.902 303.782 378.003 301.016 381.431 296.377C384.86 291.739 386.953 285.503 388.982 279.424C388.856 286.05 391.938 292.549 396.302 294.853C400.677 297.156 405.999 295.073 408.923 289.931C411.026 286.239 411.899 281.37 413.961 277.626C416.022 273.882 420.344 271.736 422.595 275.249C424.078 277.584 423.889 281.159 424.625 284.125C425.771 288.732 429.242 291.624 432.681 291.876C436.11 292.129 439.454 290.151 442.325 287.47C448.246 281.916 452.611 273.103 454.304 263.312C455.051 258.947 455.261 254.193 453.968 250.102C452.674 246.011 449.55 242.856 446.448 243.634C444.408 239.322 448.436 233.601 452.064 234.106C455.703 234.611 458.553 238.512 461.54 241.51C464.516 244.507 468.681 246.684 471.678 243.708C471.657 246.474 473.908 248.304 475.854 248.072C477.789 247.852 479.514 246.295 481.291 245.191C488.159 240.91 496.877 243.75 501.757 251.848C498.707 238.87 494.238 223.978 484.867 220.928C481.039 219.676 476.863 220.707 473.246 218.54C466.841 214.702 465.547 200.199 471.079 194.214C470.374 199.872 470.511 206.477 473.498 210.348C476.485 214.218 482.753 211.694 482.374 205.972C483.237 209.916 487.528 210.516 489.505 207.487C491.493 204.458 491.324 199.504 489.915 195.886C488.506 192.269 486.108 189.671 483.784 187.178C478.788 181.825 473.719 176.409 467.934 173.043C462.139 169.678 455.451 168.542 449.645 171.886C446.585 173.653 443.892 176.598 440.769 178.155C437.645 179.722 433.68 179.522 431.608 175.862C429.284 171.781 430.378 165.723 429.515 160.623C427.969 151.609 418.956 147.392 413.961 153.345C417.694 152.388 421.554 156.805 422.017 162.158C422.49 167.511 419.787 172.917 416.169 174.537C410.09 177.229 404.138 170.456 399.542 164.188C394.746 157.625 389.943 151.066 385.133 144.51C384.365 143.394 383.503 142.346 382.557 141.376C381.05 139.908 379.042 139.067 376.939 139.024C374.836 138.981 372.795 139.739 371.23 141.145C366.371 145.11 364.088 153.24 360.102 158.835C354.318 166.964 345.662 168.942 337.606 170.519C331.601 171.687 325.592 172.861 319.58 174.042C315.572 181.498 312.076 189.218 309.115 197.149C319.296 201.471 328.688 209.559 336.06 220.444Z" fill="#F1FEFF"/>
<path d="M316.646 346.986C321.152 356.135 326.392 364.904 332.316 373.205C336.102 371.585 340.173 374.478 343.717 377.191C347.419 380.031 351.868 382.797 355.664 380.21C359.545 377.559 360.797 370.145 359.566 364.266C358.336 358.397 355.265 353.727 352.288 349.289C349.133 344.578 345.757 339.687 341.372 337.857C336.975 336.027 331.328 338.614 330.045 344.861L326.932 344.756C328.677 342.358 327.762 337.394 325.417 336.521C322.714 335.501 320.369 339.214 318.77 342.495C318.055 343.978 317.329 345.471 316.646 346.986Z" fill="#F1FEFF"/>
<path d="M435.874 302.563C442.565 302.983 447.865 294.746 451.387 286.642C454.909 278.539 458.123 269.271 464.161 265.147C467.611 262.79 471.544 262.466 475.286 261.324C479.028 260.182 482.944 257.819 484.733 253.006L488.978 251.291C494.583 254.443 500.263 257.653 505.093 262.782C510.511 268.537 513.885 275.914 514.696 283.776C515.507 292.272 512.513 301.745 506.918 304.937C502.497 307.459 497.351 305.869 492.873 308.178C487.278 311.062 483.957 319.442 482.699 327.715C481.442 335.988 481.761 344.586 480.861 352.953C479.962 361.32 477.483 370.027 472.352 374.314C465.932 379.68 456.511 375.222 453.63 365.454C452.217 360.663 452.266 355.257 451.209 350.283C449.348 341.525 444.326 335.027 440.343 327.842C436.36 320.658 433.225 310.9 435.874 302.563Z" fill="#F1FEFF"/>
<path d="M501.994 216.5C501.37 217.074 500.788 217.692 500.252 218.349C499.697 219.306 499.413 220.396 499.432 221.502C499.451 222.608 499.771 223.688 500.359 224.625C499.553 224.579 498.765 224.367 498.045 224.001C497.326 223.635 496.69 223.124 496.177 222.5C494.956 221.109 493.882 219.596 492.972 217.984C492.289 216.871 491.563 215.367 492.026 214.045C492.342 213.143 493.09 212.758 493.614 212.079C494.445 211.004 494.65 209.296 495.08 207.82C496.009 204.632 498.233 202.288 500.647 201.953L500.312 202.017C501.321 202.363 502.025 203.964 501.802 205.405C501.599 206.718 500.756 207.807 500.839 209.146C500.96 211.071 502.884 211.974 503.002 213.899C503.021 214.865 502.659 215.799 501.994 216.5V216.5Z" fill="#F1FEFF"/>
<path d="M513.459 183.791C513.449 183.788 513.439 183.788 513.429 183.785C513.223 183.598 513.032 183.394 512.858 183.177L513.459 183.791Z" fill="#E6E6E6"/>
<path d="M511.452 192.826C509.972 191.874 509.146 189.243 509.635 187.041C510.121 184.852 511.842 183.381 513.429 183.785C513.889 184.252 514.461 184.594 515.089 184.779C515.718 184.964 516.384 184.986 517.024 184.844C518.005 184.591 519.082 183.941 519.933 184.68C520.42 185.232 520.76 185.897 520.924 186.615C521.239 187.581 521.554 188.548 521.869 189.515C522.018 189.861 522.057 190.245 521.98 190.614C521.92 190.762 521.823 190.892 521.697 190.991C521.572 191.091 521.424 191.156 521.266 191.182C519.377 191.739 517.487 192.296 515.597 192.853C514.22 193.259 512.733 193.65 511.452 192.826Z" fill="#F1FEFF"/>
<path d="M368.796 317.558C369.669 316.127 370.543 314.697 371.416 313.267C372.274 311.611 373.447 310.138 374.87 308.931C375.182 308.669 375.544 308.473 375.934 308.353C376.324 308.233 376.734 308.192 377.14 308.232C377.545 308.273 377.939 308.394 378.297 308.589C378.655 308.784 378.971 309.049 379.226 309.368L379.119 310.185C377.128 312.683 375.022 315.458 374.517 319.165C374.318 320.626 374.387 322.139 374.212 323.607C374.038 325.075 373.541 326.597 372.594 327.23C371.218 328.149 369.603 326.794 368.624 325.141C367.749 323.783 367.357 322.17 367.51 320.562C367.728 319.483 368.166 318.46 368.796 317.558V317.558Z" fill="#F1FEFF"/>
<path d="M329.921 262.94C329.668 261.283 329.415 259.627 329.163 257.97C328.752 256.151 328.702 254.268 329.012 252.429C329.083 252.028 329.233 251.644 329.454 251.301C329.675 250.958 329.962 250.663 330.299 250.433C330.636 250.203 331.015 250.042 331.414 249.96C331.814 249.879 332.226 249.878 332.626 249.958L333.071 250.651C333.156 253.845 333.331 257.324 335.332 260.486C336.121 261.732 337.148 262.845 337.96 264.08C338.772 265.316 339.372 266.8 339.055 267.894C338.594 269.483 336.486 269.486 334.673 268.852C333.129 268.377 331.79 267.396 330.871 266.067C330.344 265.101 330.02 264.036 329.921 262.94V262.94Z" fill="#F1FEFF"/>
<path d="M355.093 319.419C354.666 318.191 355.283 316.783 355.413 315.426C355.475 313.673 355.011 311.942 354.079 310.457C353.154 309.055 352.452 307.518 352.001 305.9C351.81 305.163 351.845 304.386 352.1 303.669C352.39 303.019 353.09 302.723 353.492 303.238L352.632 303.791C353.793 303.584 354.985 303.642 356.121 303.96C356.768 304.208 357.347 304.608 357.807 305.127C358.267 305.646 358.596 306.268 358.765 306.941C358.907 307.989 359.139 309.024 359.458 310.033C359.971 311.087 360.963 311.438 361.587 312.363C362.013 313.183 362.227 314.096 362.212 315.02C362.197 315.944 361.952 316.849 361.499 317.655C360.716 318.972 359.471 319.952 358.006 320.402C356.956 320.779 355.573 320.799 355.093 319.419Z" fill="#F1FEFF"/>
<path d="M434.043 335.886L434.034 335.905C433.976 335.793 433.918 335.681 433.86 335.569L434.043 335.886Z" fill="#E6E6E6"/>
<path d="M437.745 343.052C438.553 344.517 439.247 346.042 439.822 347.614C440.584 350.159 441.088 352.774 441.327 355.42C441.515 356.925 441.573 358.846 440.631 359.579C440.36 359.759 440.033 359.834 439.711 359.79C439.39 359.746 439.095 359.587 438.882 359.342C438.358 358.788 437.93 358.151 437.614 357.457C435.761 354.266 434.323 350.852 433.333 347.298C432.431 343.554 432.44 339.147 434.034 335.905C435.271 338.288 436.508 340.67 437.745 343.052Z" fill="#F1FEFF"/>
<path d="M473.458 152.149C472.87 152.724 472.126 153.114 471.319 153.272C470.512 153.429 469.677 153.347 468.916 153.036C467.34 152.347 465.894 151.392 464.642 150.213C463.605 149.446 462.725 148.486 462.051 147.387C461.68 146.729 461.442 146.005 461.351 145.256C461.26 144.507 461.318 143.747 461.521 143.02C462.106 141.308 463.592 140.735 464.902 140.346C466.999 139.724 469.097 139.102 471.194 138.48L469.677 137.113C471.238 136.275 472.965 137.83 473.941 139.755C474.566 141.012 475.002 142.354 475.235 143.739C475.757 146.76 475.246 150.359 473.458 152.149Z" fill="#E6E6E6"/>
<path d="M436.427 139.718C435.836 140.37 435.019 140.772 434.142 140.843C433.265 140.915 432.394 140.65 431.705 140.102C431.112 139.657 430.62 139.092 430.26 138.443C429.9 137.795 429.681 137.079 429.616 136.34C429.468 134.69 430.284 132.856 431.449 132.714L431.182 131.169C433.426 130.764 436.188 130.683 437.391 133.408C437.797 134.452 437.921 135.584 437.752 136.692C437.583 137.799 437.126 138.842 436.427 139.718Z" fill="#E6E6E6"/>
<path d="M441.374 57.574C454.532 56.0898 467.74 59.8933 478.093 68.1477C488.447 76.4021 495.097 88.4313 496.581 101.589C499.672 128.988 485.237 188.487 458.919 213.117C446.528 165.928 403.105 137.938 397.359 112.781C391.22 85.9003 413.975 60.6647 441.374 57.574Z" fill="#46BDF7"/>
<path d="M450.474 118.486C441.482 118.486 434.192 111.196 434.192 102.203C434.192 93.2109 441.482 85.921 450.474 85.921C459.467 85.921 466.756 93.2109 466.756 102.203C466.756 111.196 459.467 118.486 450.474 118.486Z" fill="white"/>
<path d="M467.594 236.594C461.704 236.594 456.93 231.819 456.93 225.929C456.93 220.039 461.704 215.265 467.594 215.265C473.484 215.265 478.259 220.039 478.259 225.929C478.259 231.819 473.484 236.594 467.594 236.594Z" fill="#46BDF7"/>
<path opacity="0.2" d="M437.002 90.5379C435.169 91.6392 433.571 93.0907 432.299 94.8095C431.028 96.5284 430.107 98.4809 429.59 100.556C429.072 102.63 428.969 104.787 429.285 106.901C429.601 109.016 430.331 111.048 431.432 112.88C432.533 114.713 433.985 116.311 435.704 117.583C437.422 118.855 439.375 119.776 441.45 120.293C445.64 121.337 450.073 120.675 453.774 118.45C450.001 119.29 446.051 118.759 442.633 116.953C439.214 115.146 436.551 112.182 435.118 108.591C433.686 105 433.578 101.017 434.814 97.3534C436.05 93.6902 438.55 90.5865 441.865 88.5978C440.15 88.9779 438.508 89.6331 437.002 90.5379V90.5379Z" fill="#231F20"/>
<path opacity="0.2" d="M397.764 112.976C403.51 138.133 446.933 166.123 459.325 213.312C461.8 210.974 464.099 208.455 466.202 205.777C452.277 161.421 411.557 134.469 406.006 110.163C401.037 88.4082 414.994 67.7336 435.021 59C410.778 65.094 392.138 88.3425 397.764 112.976Z" fill="#231F20"/>
<path d="M593.957 121.106C603.838 119.991 613.757 122.847 621.532 129.046C629.307 135.245 634.301 144.278 635.416 154.159C637.737 174.735 626.896 219.417 607.133 237.913C597.827 202.476 565.218 181.456 560.903 162.564C556.293 142.378 573.381 123.427 593.957 121.106Z" fill="#46BDF7"/>
<path d="M600.791 166.848C594.038 166.848 588.563 161.374 588.563 154.621C588.563 147.868 594.038 142.393 600.791 142.393C607.544 142.393 613.018 147.868 613.018 154.621C613.018 161.374 607.544 166.848 600.791 166.848Z" fill="white"/>
<path d="M613.647 255.543C609.224 255.543 605.639 251.958 605.639 247.535C605.639 243.112 609.224 239.526 613.647 239.526C618.07 239.526 621.656 243.112 621.656 247.535C621.656 251.958 618.07 255.543 613.647 255.543Z" fill="#46BDF7"/>
<path opacity="0.2" d="M590.673 145.86C589.297 146.687 588.097 147.777 587.142 149.068C586.187 150.359 585.496 151.825 585.107 153.383C584.719 154.941 584.641 156.561 584.878 158.149C585.116 159.737 585.664 161.262 586.491 162.639C587.318 164.015 588.408 165.215 589.698 166.17C590.989 167.125 592.455 167.817 594.014 168.205C595.572 168.594 597.191 168.671 598.779 168.434C600.367 168.197 601.893 167.649 603.269 166.822C600.435 167.452 597.469 167.053 594.902 165.697C592.335 164.34 590.335 162.114 589.259 159.418C588.183 156.721 588.102 153.729 589.03 150.979C589.959 148.228 591.836 145.897 594.326 144.403C593.038 144.689 591.804 145.181 590.673 145.86Z" fill="#231F20"/>
<path opacity="0.2" d="M560.855 162.604C565.17 181.496 597.779 202.515 607.085 237.953C608.944 236.196 610.67 234.305 612.25 232.294C601.793 198.984 571.213 178.744 567.044 160.491C563.313 144.154 573.794 128.628 588.833 122.069C570.628 126.646 556.63 144.105 560.855 162.604Z" fill="#231F20"/>
<path d="M211.139 564.054H224.564L230.951 512.27L211.136 512.271L211.139 564.054Z" fill="#FBD2C1"/>
<path d="M203.917 589.546H213.443L215.144 580.552L219.498 589.546H244.765C245.976 589.546 247.155 589.159 248.131 588.441C249.107 587.723 249.827 586.712 250.188 585.556C250.548 584.4 250.529 583.159 250.134 582.014C249.739 580.869 248.989 579.88 247.992 579.192L227.815 565.257V556.165L206.593 557.431L203.917 589.546Z" fill="#2F2E41"/>
<path d="M263.139 564.054H276.564L282.951 512.27L263.136 512.271L263.139 564.054Z" fill="#FBD2C1"/>
<path d="M255.917 589.546H265.443L267.144 580.552L271.498 589.546H296.765C297.976 589.546 299.155 589.159 300.131 588.441C301.107 587.723 301.827 586.712 302.188 585.556C302.548 584.4 302.529 583.159 302.134 582.014C301.739 580.869 300.989 579.88 299.992 579.192L279.815 565.257V556.165L258.593 557.431L255.917 589.546Z" fill="#2F2E41"/>
<path d="M314.143 427.333C311.574 431.187 283.624 537.126 283.624 537.126L258.842 539.953L261.783 513.297L266.28 466.128L273.242 434.642C273.242 434.642 248.655 378.686 247.101 374.228L245.996 371.03L238.314 440.744C237.401 443.233 237.004 445.881 237.145 448.529C237.376 452.883 233.009 518.397 233.009 518.397L230.909 541.892L209.676 544.842L201.061 504.19C193.867 490.984 197.991 444.058 200.933 439.691C203.874 435.323 202.705 404.904 202.705 404.904C198.949 403.582 176.549 327.198 187.753 327.649C187.033 323.577 186.468 319.941 186.468 319.941L205.917 304.257L254.59 291.604L266.869 285.707C266.869 285.707 288.801 326.262 288.583 328.279C288.281 330.833 288.866 333.414 290.24 335.588L312.383 409.696C312.383 409.696 316.738 423.441 314.143 427.333Z" fill="#2F2E41"/>
<path d="M191.861 162.147L199.604 145.707L225.958 146.72L234.555 163.824C234.555 163.824 259.122 193.166 259.917 202.707C260.917 214.707 252.605 273.52 260.917 269.707C260.917 269.707 280.511 292.707 268.917 292.707C257.322 292.707 204.874 325.631 201.433 329.334C197.991 333.036 182.628 335.437 183.917 327.707C185.205 319.978 191.861 278.174 191.861 278.174L173.842 212.441C168.657 198.249 167.043 182.33 178.765 172.797L191.861 162.147Z" fill="#2CA6AE"/>
<path d="M289.48 113.76C293.005 112.361 296.771 111.669 300.563 111.725C304.356 111.782 308.1 112.584 311.582 114.087C315.064 115.591 318.216 117.765 320.857 120.486C323.499 123.207 325.579 126.422 326.978 129.947C332.863 144.772 333.838 180.176 322.887 197.919C308.806 173.46 280.319 164.428 273.292 151.258C265.785 137.185 274.655 119.645 289.48 113.76Z" fill="#46BDF7"/>
<path d="M301.335 146.709C296.133 146.709 291.916 142.492 291.916 137.29C291.916 132.088 296.133 127.871 301.335 127.871C306.537 127.871 310.754 132.088 310.754 137.29C310.754 142.492 306.537 146.709 301.335 146.709Z" fill="white"/>
<path d="M329.675 209.923C326.267 209.923 323.505 207.161 323.505 203.754C323.505 200.347 326.267 197.585 329.675 197.585C333.082 197.585 335.844 200.347 335.844 203.754C335.844 207.161 333.082 209.923 329.675 209.923Z" fill="#46BDF7"/>
<path opacity="0.2" d="M292.044 132.824C290.318 134.628 289.38 137.043 289.434 139.539C289.488 142.035 290.531 144.407 292.333 146.134C294.135 147.861 296.55 148.803 299.046 148.751C301.541 148.699 303.915 147.659 305.644 145.858C303.665 146.9 301.379 147.203 299.197 146.713C297.015 146.224 295.078 144.974 293.733 143.187C292.388 141.4 291.723 139.193 291.857 136.96C291.991 134.728 292.915 132.616 294.464 131.003C293.564 131.475 292.747 132.09 292.044 132.824Z" fill="#231F20"/>
<path opacity="0.2" d="M273.265 151.297C280.291 164.467 308.779 173.499 322.859 197.958C323.886 196.277 324.787 194.522 325.555 192.708C311.048 170.063 284.227 161.2 277.438 148.475C271.362 137.086 276.014 123.427 285.867 115.512C273.26 122.594 266.384 138.401 273.265 151.297Z" fill="#231F20"/>
<path d="M332.455 201.63C331.021 201.334 329.539 201.357 328.115 201.696C326.69 202.034 325.357 202.682 324.21 203.591C323.062 204.501 322.129 205.651 321.474 206.961C320.819 208.271 320.459 209.708 320.42 211.172L299.052 219.374L300.869 233.575L330.883 221.568C333.346 221.471 335.688 220.474 337.465 218.765C339.243 217.056 340.331 214.755 340.525 212.297C340.719 209.84 340.004 207.396 338.517 205.43C337.029 203.464 334.873 202.112 332.455 201.63Z" fill="#FBD2C1"/>
<path d="M183.149 172.365C185.399 170.992 187.898 170.076 190.502 169.67C193.107 169.264 195.766 169.377 198.327 170.001C200.888 170.625 203.3 171.749 205.426 173.308C207.552 174.867 209.349 176.83 210.714 179.084L241.385 229.733L310.732 213.296L317.05 230.64L228.244 272.706L183.267 201.069C176.533 191.606 173.236 178.417 183.149 172.365Z" fill="#45D0DA"/>
<path d="M182.004 110.293C182.002 115.175 183.198 119.982 185.488 124.293C187.778 128.605 191.091 132.288 195.137 135.02C199.183 137.752 203.837 139.449 208.692 139.962C213.546 140.475 218.453 139.788 222.98 137.963C227.507 136.137 231.517 133.228 234.658 129.491C237.799 125.753 239.974 121.302 240.993 116.528C242.011 111.754 241.843 106.803 240.501 102.109C239.16 97.4152 236.687 93.1225 233.299 89.6077L233.156 89.4647C232.917 89.2141 232.679 88.9636 232.428 88.725L232.423 88.7241L232.42 88.7215L232.417 88.7176L232.416 88.713C232.106 88.4267 231.796 88.1404 231.474 87.8661C227.164 84.088 221.857 81.6319 216.188 80.792C210.519 79.9521 204.728 80.7638 199.508 83.1302C194.288 85.4965 189.861 89.3171 186.757 94.1344C183.652 98.9518 182.002 104.562 182.004 110.293Z" fill="#9E716E"/>
<path d="M219.174 142.201C205.363 142.201 194.166 131.005 194.166 117.193C194.166 103.382 205.363 92.1854 219.174 92.1854C232.985 92.1854 244.182 103.382 244.182 117.193C244.182 131.005 232.985 142.201 219.174 142.201Z" fill="#FBD2C1"/>
<path d="M192.618 124.325L196.761 123.593C199.077 123.172 201.208 122.054 202.871 120.389C204.534 118.724 205.648 116.591 206.066 114.276L210.109 121.051L210.286 121.11C219.919 124.308 229.941 123.352 240.92 118.19C244.058 116.701 247.103 115.022 250.038 113.162L250.255 113.027L250.272 112.773C250.832 104.637 249.007 97.841 245.131 93.6354C243.642 92.0531 241.837 90.8031 239.832 89.9674C237.827 89.1316 235.668 88.729 233.497 88.7858C233.342 88.7454 233.2 88.6671 233.084 88.5578C233.028 88.5168 232.972 88.4763 232.917 88.4377V88.3957L232.63 88.2604C232.012 87.9704 231.383 87.6925 230.755 87.4386C225.806 85.5231 220.418 85.0425 215.209 86.0523C209.999 87.062 205.181 89.521 201.306 93.1466C193.603 100.501 190.07 112.842 192.514 123.858L192.618 124.325Z" fill="#9E716E"/>
<path d="M139.871 145.632C148.381 141.239 137.436 125.297 139.636 115.976C141.835 106.656 157.673 103.658 158.682 94.1342C159.691 84.6106 162.064 74.7882 168.349 67.5617C172.364 62.9439 178.281 59.535 184.373 60.1134C186.435 60.3091 188.43 60.9467 190.222 61.9829C192.015 63.019 193.563 64.4294 194.761 66.1179C195.96 67.8063 196.78 69.7333 197.167 71.7674C197.554 73.8015 197.497 75.8951 197.002 77.9054C198.736 75.4477 203.225 75.9804 204.336 78.776C205.324 81.2613 203.142 84.2716 200.574 84.4915C197.213 88.6415 193.365 93.0458 188.1 93.883C187.262 94.0756 186.39 94.0751 185.551 93.8815C184.713 93.688 183.929 93.3064 183.26 92.7656C182.021 91.5762 181.925 89.1982 183.394 88.3094C176.778 90.9375 172.899 98.0909 171.917 105.142C170.936 112.193 172.294 119.327 173.189 126.39C174.084 133.452 174.469 140.882 171.7 147.44C168.428 155.189 160.896 160.743 152.675 162.524C144.454 164.305 135.699 162.564 128.258 158.642C120.817 154.72 114.612 148.733 109.543 142.021C118.275 148.221 130.355 150.543 139.871 145.632Z" fill="#9E716E"/>
<path d="M193.682 123.63C193.682 123.63 201.09 95.978 232.846 89.5958C232.881 89.584 233.001 89.5362 233.156 89.4648C233.251 89.4051 233.371 89.3454 233.49 89.2858C233.132 89.0829 232.786 88.9041 232.428 88.725L232.423 88.7241L232.42 88.7216L232.417 88.7176L232.416 88.7131C232.106 88.4268 231.796 88.1405 231.474 87.8661L230.567 87.9019C230.567 87.9019 198.704 82.8559 193.682 123.63Z" fill="#1C939B"/>
<path opacity="0.2" d="M210.268 212.357L228.203 233.136L257.838 224.385L225.531 239.273L210.268 212.357Z" fill="black"/>
<path d="M102.616 591.112L378.366 591.419C378.682 591.418 378.984 591.292 379.206 591.069C379.429 590.846 379.554 590.543 379.554 590.228C379.554 589.913 379.429 589.611 379.206 589.388C378.984 589.164 378.682 589.039 378.366 589.038L102.616 588.73C102.301 588.73 101.998 588.856 101.775 589.079C101.551 589.302 101.426 589.605 101.426 589.921C101.426 590.237 101.551 590.54 101.775 590.763C101.998 590.986 102.301 591.112 102.616 591.112V591.112Z" fill="#CACACA"/>
<path d="M90.5127 406.072C103.425 406.072 117.577 405.584 132.969 404.608C212.583 399.552 315.707 381.975 423.345 355.116C530.983 328.256 630.275 295.322 702.931 262.381C738.323 246.335 765.487 231.145 783.666 217.234C802.913 202.507 811.332 189.67 808.69 179.081C803.542 158.452 757.959 153.939 720.626 153.786L720.613 156.786C771.881 156.996 802.127 165.172 805.779 179.808C810.431 198.448 772.492 227.548 701.692 259.649C629.196 292.517 530.086 325.388 422.619 352.206C315.151 379.022 212.217 396.569 132.779 401.614C55.2002 406.542 8.03565 398.676 3.38428 380.036C-0.477543 364.559 24.9824 341.76 75.0737 315.838L73.6948 313.173C37.2978 332.009 -4.95069 359.025 0.473145 380.762C3.11565 391.351 16.5786 398.727 40.4882 402.685C54.1176 404.941 70.8584 406.072 90.5127 406.072Z" fill="#46BDF7"/>
</g>
<g clip-path="url(#clip1_2_7)">
<path d="M396.754 669.922C443.006 669.847 480.496 667.348 480.491 664.34C480.487 661.332 442.988 658.953 396.737 659.027C350.485 659.102 312.995 661.601 313 664.609C313.005 667.618 350.503 669.996 396.754 669.922Z" fill="#E6E6E6"/>
<path d="M573.899 598.545C610.215 598.487 639.652 596.524 639.649 594.162C639.645 591.8 610.202 589.933 573.885 589.991C537.569 590.049 508.132 592.011 508.136 594.374C508.14 596.736 537.583 598.603 573.899 598.545Z" fill="#E6E6E6"/>
<path d="M692.938 672.582C738.825 672.508 776.013 665.869 776 657.754C775.987 649.638 738.778 643.119 692.891 643.193C647.004 643.267 609.815 649.905 609.828 658.021C609.842 666.136 647.051 672.655 692.938 672.582Z" fill="#E6E6E6"/>
<path d="M409.172 516.155L418.602 513.528C418.602 513.528 422.295 512.79 420.038 505.57C417.782 498.351 413.305 500.371 413.305 500.371L404.94 502.803L401.638 503.824L406.284 510.349L406.674 514.698L409.172 516.155Z" fill="#3F3D56"/>
<path d="M390.951 497.08L387.992 508.907L403.151 523.611L404.455 523.938L407.931 522.96L410.89 511.133L407.893 507.979L410.956 507.176L404.419 500.824L401.008 501.541L398.272 498.822L400.118 498.083L400.293 497.388L398.056 495.625L390.951 497.08Z" fill="#3F3D56"/>
<path d="M405.153 513.762L403.195 521.589L394.161 513.041L396.423 505.105L405.153 513.762Z" fill="white"/>
<path d="M390.951 497.08L390.536 498.738L405.61 513.414L406.913 513.741L410.282 512.829L410.467 512.825L410.89 511.133L407.893 507.979L410.956 507.176L404.419 500.824L401.008 501.541L398.272 498.822L400.118 498.083L400.293 497.388L398.056 495.625L390.951 497.08Z" stroke="#3F3D56" stroke-miterlimit="10"/>
<path d="M399.131 497.235C399.245 496.779 398.793 496.272 398.121 496.104C397.449 495.936 396.812 496.169 396.698 496.625C396.583 497.082 397.035 497.588 397.707 497.756C398.379 497.925 399.016 497.691 399.131 497.235Z" fill="white"/>
<path d="M408.707 509.893C408.821 509.437 408.369 508.93 407.697 508.762C407.025 508.594 406.388 508.827 406.274 509.283C406.16 509.74 406.612 510.246 407.284 510.414C407.956 510.583 408.593 510.349 408.707 509.893Z" fill="white"/>
<path d="M415.437 530.889L413.381 523.891C413.381 523.891 418.727 511.131 412.558 509.896C406.389 508.661 405.978 521.833 405.978 521.833L408.445 529.654L415.437 530.889Z" fill="#FBD2C1"/>
<path d="M377.257 517.283C386.28 517.283 393.594 509.963 393.594 500.932C393.594 491.902 386.28 484.582 377.257 484.582C368.234 484.582 360.92 491.902 360.92 500.932C360.92 509.963 368.234 517.283 377.257 517.283Z" fill="#FBD2C1"/>
<path d="M382.543 512.474C382.543 512.474 383.504 524.497 385.906 525.458C388.309 526.42 364.426 533.153 364.426 533.153L371.634 524.977C371.634 524.977 368.608 512.474 365.244 509.589L382.543 512.474Z" fill="#FBD2C1"/>
<path d="M405.566 527.184L412.147 526.361C412.147 526.361 419.961 530.477 419.961 535.828C419.961 541.179 424.485 549.823 424.485 549.823C424.485 549.823 427.776 561.349 420.373 562.172C412.97 562.995 406.389 549.823 406.389 549.823L405.566 527.184Z" fill="#FCF6F6"/>
<path d="M409.268 592.632L422.534 583.486C424.632 582.012 427.122 581.2 429.685 581.154C432.247 581.107 434.765 581.829 436.915 583.225C438.743 584.445 440.114 586.046 440.114 588.104C440.114 594.278 426.542 608.685 426.542 608.685C426.542 608.685 416.26 631.324 406.389 632.147C399.896 632.737 393.442 633.699 387.059 635.028C387.059 635.028 391.583 651.493 389.115 656.021C386.647 660.549 377.188 665.9 376.365 665.488C375.543 665.077 364.027 654.375 359.091 639.145C354.156 623.915 350.866 612.389 355.39 611.566C359.914 610.743 409.268 592.632 409.268 592.632Z" fill="#2F2E41"/>
<path d="M438.88 586.869C438.88 586.869 441.759 586.457 441.348 593.455C440.937 600.452 439.703 625.561 437.647 630.501C435.59 635.44 435.179 641.203 436.001 643.261C436.824 645.319 438.469 648.612 435.59 649.024C432.711 649.435 420.784 647.789 419.55 647.377C418.316 646.965 424.486 630.912 423.663 630.089C422.84 629.266 422.018 609.92 422.018 609.92L438.88 586.869Z" fill="#2F2E41"/>
<path d="M434.768 647.789C434.768 647.789 441.759 645.731 442.582 650.258C442.582 650.258 443.816 657.256 438.469 659.726C435.019 661.358 431.716 663.286 428.598 665.488C428.598 665.488 419.961 668.781 419.55 664.665C419.139 660.549 421.195 645.731 421.195 645.731L434.768 647.789Z" fill="#2F2E41"/>
<path d="M388.293 652.728L375.131 642.026C375.131 642.026 377.599 655.198 374.309 657.668L372.806 662.065L377.015 665.511C377.015 665.511 389.938 663.43 388.293 652.728Z" fill="#2F2E41"/>
<path d="M369.785 634.617C369.785 634.617 378.422 637.087 377.188 645.731C375.954 654.375 374.372 663.766 374.372 663.766C374.372 663.766 373.898 686.893 367.728 688.539C361.559 690.185 359.914 686.893 359.914 686.893C359.914 686.893 352.901 668.821 354.979 663.43C357.493 656.906 361.116 649.58 359.914 647.377C358.731 645.21 360.737 633.382 369.785 634.617Z" fill="#2F2E41"/>
<path d="M364.849 521.01C364.849 521.01 368.14 521.422 373.486 522.245C378.833 523.068 382.535 518.952 385.414 519.775C388.293 520.598 412.147 526.361 412.147 526.361L410.084 542.192C409.407 547.381 407.728 552.35 405.576 557.119C402.107 564.81 407.247 588.901 412.147 593.455C416.409 597.416 422.018 598.394 415.849 605.392C409.679 612.389 398.986 618.564 377.188 616.506C355.39 614.447 352.511 614.859 352.511 611.566C352.511 608.273 360.268 565.053 357.801 562.583C355.333 560.114 354.099 557.644 354.099 556.409C354.099 555.584 351.526 546.298 349.82 540.231C348.581 535.949 349.042 531.353 351.107 527.403C351.879 525.957 352.762 524.847 353.688 524.715C356.567 524.303 354.567 522.245 356.624 522.245C358.68 522.245 359.914 522.656 361.148 522.245L364.849 521.01Z" fill="#F3EDED"/>
<path d="M396.373 489.904C396.373 489.904 396.001 469.698 376.184 479.263C376.184 479.263 360.947 478.725 358.814 498.015L356.753 518.211L358.961 516.549L360.441 518.833L364.477 519.246L365.655 515.693L367.051 519.591L399.386 518.073C399.386 518.073 383.871 511.729 381.416 496.622L384.558 499.097L396.373 489.904Z" fill="#2F2E41"/>
<path d="M359.129 490.081C363.602 490.081 367.228 486.452 367.228 481.975C367.228 477.498 363.602 473.869 359.129 473.869C354.656 473.869 351.029 477.498 351.029 481.975C351.029 486.452 354.656 490.081 359.129 490.081Z" fill="#2F2E41"/>
<path d="M367.097 478.795C366.666 476.779 365.483 475.004 363.79 473.831C362.097 472.658 360.021 472.175 357.985 472.48C358.147 472.434 358.307 472.385 358.474 472.349C359.514 472.127 360.588 472.112 361.634 472.304C362.68 472.497 363.678 472.895 364.571 473.474C365.463 474.053 366.233 474.802 366.836 475.678C367.44 476.555 367.865 477.542 368.087 478.583C368.309 479.624 368.324 480.699 368.131 481.746C367.938 482.792 367.541 483.791 366.963 484.684C366.385 485.578 365.636 486.348 364.76 486.952C363.884 487.556 362.898 487.981 361.858 488.203C361.691 488.239 361.524 488.259 361.357 488.284C363.341 487.73 365.038 486.44 366.105 484.677C367.171 482.914 367.526 480.81 367.097 478.795Z" fill="#2F2E41"/>
<path d="M565.27 421.994C572.644 421.994 578.621 416.012 578.621 408.632C578.621 401.253 572.644 395.271 565.27 395.271C557.897 395.271 551.92 401.253 551.92 408.632C551.92 416.012 557.897 421.994 565.27 421.994Z" fill="#2F2E41"/>
<path d="M572.3 417.528C572.3 417.528 572.099 425.775 572.903 425.976C573.707 426.178 561.848 429.396 561.848 429.396L560.642 418.131L572.3 417.528Z" fill="#FBD2C1"/>
<path d="M478.635 487.934C478.635 487.934 469.791 487.934 469.59 486.929C469.389 485.923 467.58 495.176 467.58 495.176L471.198 496.383C471.198 496.383 478.032 493.366 478.635 493.366C479.238 493.366 478.635 487.934 478.635 487.934Z" fill="#FBD2C1"/>
<path d="M468.987 491.555C468.987 491.555 470.595 486.124 472.605 485.923C472.605 485.923 465.771 481.497 465.57 480.089C465.369 478.681 462.957 475.06 461.952 476.267C460.947 477.474 460.947 496.584 462.756 498.596C464.565 500.608 472.605 495.768 472.605 495.768C472.605 495.768 467.58 493.567 468.987 491.555Z" fill="#2F2E41"/>
<path d="M578.128 568.601L579.736 577.25L572.3 578.457V568.601H578.128Z" fill="#FBD2C1"/>
<path d="M578.129 576.244C578.129 576.244 579.334 572.422 580.138 573.026C580.942 573.629 582.148 577.451 581.947 578.457C581.746 579.463 580.339 587.308 580.942 588.716C581.545 590.125 577.928 597.366 573.305 596.763C568.682 596.159 569.084 592.136 569.084 592.136L570.692 585.9L571.295 576.043C571.295 576.043 576.521 575.239 578.129 576.244Z" fill="#2F2E41"/>
<path d="M569.941 400.098C572.992 400.098 575.465 397.623 575.465 394.57C575.465 391.516 572.992 389.041 569.941 389.041C566.89 389.041 564.416 391.516 564.416 394.57C564.416 397.623 566.89 400.098 569.941 400.098Z" fill="#2F2E41"/>
<path d="M577.306 391.575C577.306 390.208 576.801 388.89 575.887 387.874C574.973 386.859 573.716 386.218 572.358 386.076C572.549 386.056 572.741 386.046 572.933 386.046C574.397 386.047 575.801 386.63 576.836 387.667C577.871 388.704 578.452 390.109 578.452 391.575C578.452 393.04 577.871 394.446 576.836 395.482C575.801 396.519 574.397 397.102 572.933 397.104C572.741 397.104 572.549 397.094 572.358 397.074C573.716 396.931 574.973 396.29 575.887 395.275C576.801 394.26 577.306 392.941 577.306 391.575Z" fill="#2F2E41"/>
<path d="M565.265 423.16C569.927 423.16 573.706 419.378 573.706 414.711C573.706 410.045 569.927 406.263 565.265 406.263C560.602 406.263 556.823 410.045 556.823 414.711C556.823 419.378 560.602 423.16 565.265 423.16Z" fill="#FBD2C1"/>
<path d="M581.947 473.451C581.947 473.451 581.545 483.509 579.938 488.739C578.33 493.969 572.532 531.217 573.738 534.034C574.944 536.85 581.143 567.997 579.737 569.807C578.33 571.618 571.697 571.014 571.697 571.014L562.683 533.229C562.683 533.229 564.461 491.555 549.587 490.549C534.713 489.544 510.392 488.94 510.392 488.94C510.392 488.94 494.714 493.567 487.68 493.366C480.645 493.165 476.625 495.176 476.625 495.176L475.419 486.929L506.573 480.089C506.573 480.089 535.115 470.232 550.793 472.847C566.471 475.462 581.947 473.451 581.947 473.451Z" fill="#2F2E41"/>
<path d="M570.692 423.361C570.692 423.361 573.104 421.953 573.707 423.361C574.309 424.77 578.53 425.976 580.138 424.77C581.746 423.563 585.766 425.172 585.766 425.172L590.188 438.247C590.188 438.247 587.977 449.512 585.967 455.748C583.957 461.984 583.153 474.859 583.957 476.066C584.761 477.273 567.878 482.101 559.637 479.083C551.396 476.066 549.587 472.646 549.587 472.646C549.587 472.646 558.632 459.772 555.617 453.737C552.602 447.702 555.014 440.862 555.014 440.862L553.808 434.023L560.642 430.201C560.642 430.201 561.044 426.58 562.652 426.58C564.26 426.58 570.692 423.361 570.692 423.361Z" fill="#2CA6AE"/>
<path d="M556.823 434.224H553.808C552.971 435.007 552.348 435.991 551.996 437.082C551.645 438.173 551.576 439.335 551.798 440.46C552.602 444.282 556.228 456.954 556.228 456.954L559.235 449.11L556.823 434.224Z" fill="#2CA6AE"/>
<path d="M548.165 466.53C548.165 466.53 542.15 473.048 546.572 476.468C550.994 479.888 552.083 468.623 552.083 468.623L548.165 466.53Z" fill="#FBD2C1"/>
<path d="M556.823 452.932L555.416 458.565L553.004 462.99C553.004 462.99 544.763 468.422 544.763 470.433C544.763 470.433 548.381 465.807 553.004 470.433L557.124 460.476L556.823 452.932Z" fill="#2CA6AE"/>
<path d="M563.717 411.328C568.802 411.328 572.925 408.853 572.925 405.799C572.925 402.746 568.802 400.271 563.717 400.271C558.632 400.271 554.51 402.746 554.51 405.799C554.51 408.853 558.632 411.328 563.717 411.328Z" fill="#2F2E41"/>
<path d="M581.947 406.263C581.947 406.263 575.516 402.642 572.903 405.257C570.29 407.872 580.741 411.895 580.741 411.895L581.947 406.263Z" fill="#FBD2C1"/>
<path d="M584.576 425.096L586.103 424.283C586.103 424.283 588.012 422.099 589.302 423.081C590.592 424.062 599.261 421.349 599.261 421.349C599.261 421.349 596.088 422.351 596.403 419.958C596.718 417.565 596.267 417.911 594.275 417.649C592.282 417.386 592.15 418.383 591.537 416.882C590.924 415.381 591.427 414.636 589.927 415.25C588.427 415.864 586.912 415.056 586.592 414.405C586.272 413.754 579.23 411.813 579.23 411.813C579.23 411.813 583.096 404.003 583.773 403.483C584.449 402.964 598.901 411.765 598.901 411.765C598.901 411.765 617.522 419.695 611.726 425.222C605.93 430.748 586.761 437.761 586.761 437.761L584.576 425.096Z" fill="#31A8AF"/>
<path d="M621.98 373L658.242 373.225C658.242 373.225 717.927 405.008 676.035 470.828C676.035 470.828 658.917 466.771 639.998 480.747C639.998 480.747 628.962 375.48 621.98 373Z" fill="#46BDF7"/>
<path opacity="0.2" d="M632.767 373.329C639.263 400.488 646.607 470.536 646.607 470.536C663.51 458.05 678.964 459.957 682.068 460.506C680.237 464.134 678.223 467.667 676.034 471.091C676.034 471.091 658.917 467.034 639.998 481.009C639.998 481.009 628.962 375.742 621.98 373.262L632.767 373.329Z" fill="black"/>
<path d="M676.26 407.037L679.413 422.365L719.04 415.156L719.053 415.152L719.954 397.119H712.296L676.26 407.037Z" fill="#3F3D56"/>
<path opacity="0.2" d="M712.936 397.119L719.04 415.156L719.053 415.152L719.954 397.119H712.936Z" fill="black"/>
<path d="M677.611 424.168C680.099 424.168 682.116 419.526 682.116 413.799C682.116 408.073 680.099 403.431 677.611 403.431C675.123 403.431 673.107 408.073 673.107 413.799C673.107 419.526 675.123 424.168 677.611 424.168Z" fill="#3F3D56"/>
<path d="M701.035 632.925C700.854 632.925 700.675 632.889 700.508 632.82C700.341 632.75 700.189 632.649 700.061 632.521C699.933 632.393 699.832 632.241 699.763 632.074C699.694 631.907 699.658 631.728 699.658 631.547V413.799C699.658 413.434 699.803 413.084 700.061 412.825C700.319 412.567 700.67 412.422 701.035 412.422C701.4 412.422 701.75 412.567 702.008 412.825C702.267 413.084 702.412 413.434 702.412 413.799V631.547C702.412 631.727 702.376 631.907 702.307 632.074C702.238 632.241 702.136 632.393 702.008 632.521C701.881 632.649 701.729 632.75 701.562 632.82C701.395 632.889 701.216 632.925 701.035 632.925H701.035Z" fill="#3F3D56"/>
<path d="M682.117 671.245C681.914 671.245 681.713 671.201 681.529 671.114C681.345 671.027 681.183 670.901 681.053 670.744C680.924 670.587 680.831 670.403 680.781 670.206C680.731 670.009 680.725 669.803 680.764 669.603L698.34 579.426L652.186 649.885C652.087 650.036 651.959 650.167 651.809 650.269C651.66 650.371 651.492 650.443 651.315 650.48C651.137 650.517 650.955 650.518 650.777 650.485C650.599 650.451 650.429 650.382 650.278 650.283C650.127 650.184 649.996 650.056 649.895 649.906C649.793 649.756 649.721 649.587 649.685 649.41C649.648 649.233 649.647 649.05 649.681 648.872C649.715 648.694 649.783 648.524 649.883 648.373V648.373L699.883 572.044C700.058 571.777 700.321 571.579 700.625 571.484C700.93 571.389 701.258 571.403 701.554 571.523C701.849 571.644 702.094 571.863 702.246 572.144C702.398 572.425 702.447 572.75 702.386 573.063L683.467 670.131C683.406 670.444 683.238 670.727 682.992 670.93C682.746 671.133 682.437 671.244 682.117 671.245V671.245Z" fill="#3F3D56"/>
<path d="M753.289 654.113C753.06 654.114 752.835 654.057 752.633 653.948C752.432 653.839 752.261 653.682 752.136 653.49L699.883 573.695C699.784 573.544 699.715 573.374 699.681 573.196C699.647 573.018 699.649 572.836 699.685 572.658C699.722 572.481 699.793 572.312 699.895 572.163C699.997 572.013 700.127 571.885 700.279 571.785C700.43 571.686 700.6 571.618 700.778 571.584C700.955 571.55 701.138 571.552 701.315 571.589C701.492 571.626 701.661 571.698 701.81 571.8C701.959 571.902 702.087 572.033 702.186 572.185V572.185L754.439 651.98C754.575 652.188 754.652 652.429 754.663 652.677C754.673 652.925 754.617 653.171 754.499 653.39C754.381 653.608 754.206 653.791 753.993 653.918C753.78 654.046 753.537 654.113 753.289 654.113V654.113Z" fill="#3F3D56"/>
</g>
<defs>
<clipPath id="clip0_2_7">
<rect width="825.202" height="591.419" fill="white" transform="matrix(-1 0 0 1 825.202 0)"/>
</clipPath>
<clipPath id="clip1_2_7">
<rect width="463" height="316" fill="white" transform="translate(313 373)"/>
</clipPath>
</defs>
</svg>
